<?xml version="1.0" encoding="UTF-8"?>
<svg width="16px" height="16px" viewBox="0 0 16 16" version="1.1" xmlns="http://www.w3.org/2000/svg" xmlns:xlink="http://www.w3.org/1999/xlink">
    <!-- Generator: Sketch 49.3 (51167) - http://www.bohemiancoding.com/sketch -->
    <title>calendar</title>
    <desc>Created with Sketch.</desc>
    <defs></defs>
    <g id="Page-1" stroke="none" stroke-width="1" fill="none" fill-rule="evenodd">
        <g id="01.-Trang-Chu" transform="translate(-308.000000, -732.000000)" fill="#CC9B40" fill-rule="nonzero">
            <g id="Group-14" transform="translate(0.000000, 720.000000)">
                <g id="Group-11" transform="translate(148.000000, 0.000000)">
                    <path d="M174.75,13.25 L174.5,13.25 L174.5,12.75 C174.5,12.3364375 174.163563,12 173.75,12 C173.336437,12 173,12.3364375 173,12.75 L173,13.25 L163,13.25 L163,12.75 C163,12.3364375 162.663563,12 162.25,12 C161.836437,12 161.5,12.3364375 161.5,12.75 L161.5,13.25 L161.25,13.25 C160.56075,13.25 160,13.81075 160,14.5 L160,25.5 C160,26.18925 160.56075,26.75 161.25,26.75 L164,26.75 C164.138062,26.75 164.25,26.6380625 164.25,26.5 C164.25,26.3619375 164.138062,26.25 164,26.25 L161.25,26.25 C160.836437,26.25 160.5,25.9135625 160.5,25.5 L160.5,16 L172.5,16 C172.638062,16 172.75,15.8880625 172.75,15.75 C172.75,15.6119375 172.638062,15.5 172.5,15.5 L160.5,15.5 L160.5,14.5 C160.5,14.0864375 160.836437,13.75 161.25,13.75 L161.5,13.75 L161.5,14.25 C161.5,14.6635625 161.836437,15 162.25,15 C162.663563,15 163,14.6635625 163,14.25 L163,13.75 L173,13.75 L173,14.25 C173,14.6635625 173.336437,15 173.75,15 C174.163563,15 174.5,14.6635625 174.5,14.25 L174.5,13.75 L174.75,13.75 C175.163563,13.75 175.5,14.0864375 175.5,14.5 L175.5,15.5 L175,15.5 C174.861938,15.5 174.75,15.6119375 174.75,15.75 C174.75,15.8880625 174.861938,16 175,16 L175.5,16 L175.5,25.5 C175.5,25.9135625 175.163563,26.25 174.75,26.25 L171.999937,26.25 C171.861875,26.25 171.749937,26.3619375 171.749937,26.5 C171.749937,26.6380625 171.861875,26.75 171.999937,26.75 L174.75,26.75 C175.43925,26.75 176,26.18925 176,25.5 L176,14.5 C176,13.81075 175.43925,13.25 174.75,13.25 Z M162.5,14.25 C162.5,14.3878438 162.387844,14.5 162.25,14.5 C162.112156,14.5 162,14.3878438 162,14.25 L162,13.5003125 C162,13.5002188 162,13.5000937 162,13.5 C162,13.4999063 162,13.4998125 162,13.4996875 L162,12.75 C162,12.6121562 162.112156,12.5 162.25,12.5 C162.387844,12.5 162.5,12.6121562 162.5,12.75 L162.5,14.25 Z M173.75,14.5 C173.612156,14.5 173.5,14.3878438 173.5,14.25 L173.5,12.75 C173.5,12.6121562 173.612156,12.5 173.75,12.5 C173.887844,12.5 174,12.6121562 174,12.75 L174,13.4994062 C174,13.499625 173.999969,13.4998125 173.999969,13.5 C173.999969,13.5001875 174,13.5004062 174,13.5005938 L174,14.25 C174,14.3878438 173.887844,14.5 173.75,14.5 Z M174,16 L173.5,16 C173.361938,16 173.25,15.8880625 173.25,15.75 C173.25,15.6119375 173.361938,15.5 173.5,15.5 L174,15.5 C174.138062,15.5 174.25,15.6119375 174.25,15.75 C174.25,15.8880625 174.138062,16 174,16 Z M167.75,18.25 C167.611938,18.25 167.5,18.1380625 167.5,18 C167.5,17.8619375 167.611938,17.75 167.75,17.75 L168.25,17.75 C168.388062,17.75 168.5,17.8619375 168.5,18 C168.5,18.1380625 168.388062,18.25 168.25,18.25 L167.75,18.25 Z M167.75,19.5 C167.611938,19.5 167.5,19.3880625 167.5,19.25 C167.5,19.1119375 167.611938,19 167.75,19 L168.25,19 C168.388062,19 168.5,19.1119375 168.5,19.25 C168.5,19.3880625 168.388062,19.5 168.25,19.5 L167.75,19.5 Z M169.5,18.25 C169.361938,18.25 169.25,18.1380625 169.25,18 C169.25,17.8619375 169.361938,17.75 169.5,17.75 L170,17.75 C170.138062,17.75 170.25,17.8619375 170.25,18 C170.25,18.1380625 170.138062,18.25 170,18.25 L169.5,18.25 Z M169.5,19.5 C169.361938,19.5 169.25,19.3880625 169.25,19.25 C169.25,19.1119375 169.361938,19 169.5,19 L170,19 C170.138062,19 170.25,19.1119375 170.25,19.25 C170.25,19.3880625 170.138062,19.5 170,19.5 L169.5,19.5 Z M166,18.25 C165.861938,18.25 165.75,18.1380625 165.75,18 C165.75,17.8619375 165.861938,17.75 166,17.75 L166.5,17.75 C166.638062,17.75 166.75,17.8619375 166.75,18 C166.75,18.1380625 166.638062,18.25 166.5,18.25 L166,18.25 Z M166,19.5 C165.861938,19.5 165.75,19.3880625 165.75,19.25 C165.75,19.1119375 165.861938,19 166,19 L166.5,19 C166.638062,19 166.75,19.1119375 166.75,19.25 C166.75,19.3880625 166.638062,19.5 166.5,19.5 L166,19.5 Z M164.25,18.25 C164.111938,18.25 164,18.1380625 164,18 C164,17.8619375 164.111938,17.75 164.25,17.75 L164.75,17.75 C164.888062,17.75 165,17.8619375 165,18 C165,18.1380625 164.888062,18.25 164.75,18.25 L164.25,18.25 Z M164.25,19.5 C164.111938,19.5 164,19.3880625 164,19.25 C164,19.1119375 164.111938,19 164.25,19 L164.75,19 C164.888062,19 165,19.1119375 165,19.25 C165,19.3880625 164.888062,19.5 164.75,19.5 L164.25,19.5 Z M164.25,20.75 C164.111938,20.75 164,20.6380625 164,20.5 C164,20.3619375 164.111938,20.25 164.25,20.25 L164.75,20.25 C164.888062,20.25 165,20.3619375 165,20.5 C165,20.6380625 164.888062,20.75 164.75,20.75 L164.25,20.75 Z M164.073125,21.926875 C164.026563,21.8803125 164,21.8159375 164,21.75 C164,21.6840625 164.026563,21.6196875 164.073125,21.573125 C164.119687,21.5265625 164.184063,21.5 164.25,21.5 C164.315937,21.5 164.380313,21.5265625 164.426875,21.573125 C164.473437,21.6196875 164.5,21.684375 164.5,21.75 C164.5,21.815625 164.473437,21.8803125 164.426875,21.926875 C164.380313,21.9734375 164.315937,22 164.25,22 C164.184375,22 164.119687,21.9734375 164.073125,21.926875 Z M171.25,18.25 C171.111938,18.25 171,18.1380625 171,18 C171,17.8619375 171.111938,17.75 171.25,17.75 L171.75,17.75 C171.888062,17.75 172,17.8619375 172,18 C172,18.1380625 171.888062,18.25 171.75,18.25 L171.25,18.25 Z M171.25,19.5 C171.111938,19.5 171,19.3880625 171,19.25 C171,19.1119375 171.111938,19 171.25,19 L171.75,19 C171.888062,19 172,19.1119375 172,19.25 C172,19.3880625 171.888062,19.5 171.75,19.5 L171.25,19.5 Z M171.25,20.75 C171.111938,20.75 171,20.6380625 171,20.5 C171,20.3619375 171.111938,20.25 171.25,20.25 L171.75,20.25 C171.888062,20.25 172,20.3619375 172,20.5 C172,20.6380625 171.888062,20.75 171.75,20.75 L171.25,20.75 Z M171.573125,21.573125 C171.619687,21.5265625 171.684063,21.5 171.75,21.5 C171.815625,21.5 171.880313,21.5265625 171.926875,21.573125 C171.973437,21.6196875 172,21.6840625 172,21.75 C172,21.815625 171.973437,21.8803125 171.926875,21.926875 C171.880313,21.9734375 171.815937,22 171.75,22 C171.684063,22 171.619687,21.9734375 171.573125,21.926875 C171.526563,21.8803125 171.5,21.8159375 171.5,21.75 C171.5,21.6840625 171.526563,21.6196875 171.573125,21.573125 Z M172.75,18 C172.75,17.8619375 172.861938,17.75 173,17.75 L173.5,17.75 C173.638062,17.75 173.75,17.8619375 173.75,18 C173.75,18.1380625 173.638062,18.25 173.5,18.25 L173,18.25 C172.861938,18.25 172.75,18.1380625 172.75,18 Z M173,19.5 C172.861938,19.5 172.75,19.3880625 172.75,19.25 C172.75,19.1119375 172.861938,19 173,19 L173.5,19 C173.638062,19 173.75,19.1119375 173.75,19.25 C173.75,19.3880625 173.638062,19.5 173.5,19.5 L173,19.5 Z M173,20.75 C172.861938,20.75 172.75,20.6380625 172.75,20.5 C172.75,20.3619375 172.861938,20.25 173,20.25 L173.5,20.25 C173.638062,20.25 173.75,20.3619375 173.75,20.5 C173.75,20.6380625 173.638062,20.75 173.5,20.75 L173,20.75 Z M173,22 C172.861938,22 172.75,21.8880625 172.75,21.75 C172.75,21.6119375 172.861938,21.5 173,21.5 L173.5,21.5 C173.638062,21.5 173.75,21.6119375 173.75,21.75 C173.75,21.8880625 173.638062,22 173.5,22 L173,22 Z M173,23.25 C172.861938,23.25 172.75,23.1380625 172.75,23 C172.75,22.8619375 172.861938,22.75 173,22.75 L173.5,22.75 C173.638062,22.75 173.75,22.8619375 173.75,23 C173.75,23.1380625 173.638062,23.25 173.5,23.25 L173,23.25 Z M173,24.5 C172.861938,24.5 172.75,24.3880625 172.75,24.25 C172.75,24.1119375 172.861938,24 173,24 L173.5,24 C173.638062,24 173.75,24.1119375 173.75,24.25 C173.75,24.3880625 173.638062,24.5 173.5,24.5 L173,24.5 Z M163,17.75 C163.138062,17.75 163.25,17.8619375 163.25,18 C163.25,18.1380625 163.138062,18.25 163,18.25 L162.5,18.25 C162.361938,18.25 162.25,18.1380625 162.25,18 C162.25,17.8619375 162.361938,17.75 162.5,17.75 L163,17.75 Z M163,19 C163.138062,19 163.25,19.1119375 163.25,19.25 C163.25,19.3880625 163.138062,19.5 163,19.5 L162.5,19.5 C162.361938,19.5 162.25,19.3880625 162.25,19.25 C162.25,19.1119375 162.361938,19 162.5,19 L163,19 Z M163,20.25 C163.138062,20.25 163.25,20.3619375 163.25,20.5 C163.25,20.6380625 163.138062,20.75 163,20.75 L162.5,20.75 C162.361938,20.75 162.25,20.6380625 162.25,20.5 C162.25,20.3619375 162.361938,20.25 162.5,20.25 L163,20.25 Z M163,21.5 C163.138062,21.5 163.25,21.6119375 163.25,21.75 C163.25,21.8880625 163.138062,22 163,22 L162.5,22 C162.361938,22 162.25,21.8880625 162.25,21.75 C162.25,21.6119375 162.361938,21.5 162.5,21.5 L163,21.5 Z M163,22.75 C163.138062,22.75 163.25,22.8619375 163.25,23 C163.25,23.1380625 163.138062,23.25 163,23.25 L162.5,23.25 C162.361938,23.25 162.25,23.1380625 162.25,23 C162.25,22.8619375 162.361938,22.75 162.5,22.75 L163,22.75 Z M163,24 C163.138062,24 163.25,24.1119375 163.25,24.25 C163.25,24.3880625 163.138062,24.5 163,24.5 L162.5,24.5 C162.361938,24.5 162.25,24.3880625 162.25,24.25 C162.25,24.1119375 162.361938,24 162.5,24 L163,24 Z M168,20.5 C170.06775,20.5 171.75,22.18225 171.75,24.25 C171.75,26.31775 170.06775,28 168,28 C165.93225,28 164.25,26.31775 164.25,24.25 C164.25,22.18225 165.93225,20.5 168,20.5 Z M168.25,27.4904688 C169.843187,27.3687188 171.118719,26.0931875 171.240469,24.5 L171,24.5 C170.861938,24.5 170.75,24.3880625 170.75,24.25 C170.75,24.1119375 170.861938,24 171,24 L171.240469,24 C171.118719,22.4068438 169.843187,21.1312813 168.25,21.0095313 L168.25,21.25 C168.25,21.3880625 168.138062,21.5 168,21.5 C167.861937,21.5 167.75,21.3880625 167.75,21.25 L167.75,21.0095313 C166.156844,21.1312813 164.881281,22.4068125 164.759531,24 L165,24 C165.138062,24 165.25,24.1119375 165.25,24.25 C165.25,24.3880625 165.138062,24.5 165,24.5 L164.759531,24.5 C164.881281,26.0931563 166.156813,27.3687188 167.75,27.4904688 L167.75,27.25 C167.75,27.1119375 167.861937,27 168,27 C168.138062,27 168.25,27.1119375 168.25,27.25 L168.25,27.4904688 Z M170,24 C170.138062,24 170.25,24.1119375 170.25,24.25 C170.25,24.3880625 170.138062,24.5 170,24.5 L168.707,24.5 C168.603813,24.7909687 168.325906,25 168,25 C167.586437,25 167.25,24.6635625 167.25,24.25 C167.25,23.9240937 167.459031,23.6461875 167.75,23.543 L167.75,22.25 C167.75,22.1119375 167.861938,22 168,22 C168.138062,22 168.25,22.1119375 168.25,22.25 L168.25,23.543 C168.46275,23.6184687 168.631563,23.7872812 168.707,24 L170,24 Z M168,24.5 C168.137844,24.5 168.25,24.3878438 168.25,24.25 C168.25,24.1121562 168.137844,24 168,24 C167.862156,24 167.75,24.1121562 167.75,24.25 C167.75,24.3878438 167.862156,24.5 168,24.5 Z" id="calendar"></path>
                </g>
            </g>
        </g>
    </g>
</svg>